0.781332845018108 0.781213959579517 0.780777249853895 0.774158194524399 0.796304233857033 0.791764138066462 0.788353850006306 0.785694619757303 0.824274626155142 0.82311554923998 0.82014886886386 0.818376100638635
0.781165630532366 0.78157206046109 0.780541363453425 0.777670023699087 0.794154853359869 0.794981983383807 0.794062719346077 0.789002197348857 0.81905440402309 0.81569307095735 0.80865055607395 0.80684929848831
0.775675889112629 0.772439364455621 0.767165469624056 0.76243501692637 0.793540436102094 0.785588017630021 0.782062255383276 0.771413296149909 0.826445915240464 0.822648050167138 0.82157197848461 0.799567889229635
