locus 1 
0
2
locus 2 
1
1
locus 3 
2
0
locus 4 
1
1
locus 5 
0
2
locus 6 
0
2
locus 7 
2
0
locus 8 
1
1
locus 9 
2
0
locus 10 
1
1
locus 11 
2
0
locus 12 
2
0
locus 13 
0
2
locus 14 
2
0
locus 15 
1
1
locus 16 
2
0
locus 17 
1
1
locus 18 
1
1
locus 19 
2
0
locus 20 
2
0
locus 21 
0
2
locus 22 
2
0
locus 23 
0
2
locus 24 
0
2
locus 25 
0
2
locus 26 
1
1
locus 27 
1
1
locus 28 
0
2
locus 29 
1
1
locus 30 
0
2
locus 31 
0
2
locus 32 
1
1
locus 33 
0
2
locus 34 
0
2
locus 35 
1
1
locus 36 
2
0
locus 37 
2
0
locus 38 
2
0
locus 39 
0
2
locus 40 
2
0
locus 41 
1
1
locus 42 
1
1
locus 43 
0
2
locus 44 
2
0
locus 45 
0
2
locus 46 
2
0
locus 47 
1
1
locus 48 
1
1
locus 49 
1
1
locus 50 
2
0
locus 51 
1
1
locus 52 
0
2
locus 53 
2
0
locus 54 
0
2
locus 55 
1
1
locus 56 
0
2
locus 57 
0
2
locus 58 
1
1
locus 59 
2
0
locus 60 
2
0
locus 61 
0
2
locus 62 
2
0
locus 63 
2
0
locus 64 
2
0
locus 65 
2
0
locus 66 
0
2
locus 67 
1
1
locus 68 
1
1
locus 69 
0
2
locus 70 
0
2
locus 71 
1
1
locus 72 
0
2
locus 73 
1
1
locus 74 
2
0
locus 75 
2
0
locus 76 
0
2
locus 77 
1
1
locus 78 
0
2
locus 79 
0
2
locus 80 
0
2
locus 81 
2
0
locus 82 
0
2
locus 83 
2
0
locus 84 
2
0
locus 85 
1
1
locus 86 
0
2
locus 87 
0
2
locus 88 
0
2
locus 89 
0
2
locus 90 
0
2
locus 91 
1
1
locus 92 
2
0
locus 93 
2
0
locus 94 
0
2
locus 95 
2
0
locus 96 
1
1
locus 97 
1
1
locus 98 
0
2
locus 99 
2
0
locus 100 
0
2
locus 101 
0
2
locus 102 
2
0
locus 103 
0
2
locus 104 
0
2
locus 105 
0
2
locus 106 
1
1
locus 107 
0
2
locus 108 
2
0
locus 109 
1
1
locus 110 
1
1
locus 111 
2
0
locus 112 
2
0
locus 113 
2
0
locus 114 
1
1
locus 115 
0
2
locus 116 
2
0
locus 117 
2
0
locus 118 
2
0
locus 119 
1
1
locus 120 
2
0
locus 121 
1
1
locus 122 
0
2
locus 123 
2
0
locus 124 
1
1
locus 125 
0
2
locus 126 
2
0
locus 127 
0
2
locus 128 
0
2
locus 129 
0
2
locus 130 
1
1
locus 131 
0
2
locus 132 
0
2
locus 133 
0
2
locus 134 
2
0
locus 135 
2
0
locus 136 
2
0
locus 137 
1
1
locus 138 
1
1
locus 139 
1
1
locus 140 
0
2
locus 141 
2
0
locus 142 
2
0
locus 143 
2
0
locus 144 
2
0
locus 145 
0
2
locus 146 
2
0
locus 147 
1
1
locus 148 
0
2
locus 149 
2
0
locus 150 
2
0
locus 151 
1
1
locus 152 
2
0
locus 153 
1
1
locus 154 
2
0
locus 155 
2
0
locus 156 
0
2
locus 157 
2
0
locus 158 
0
2
locus 159 
1
1
locus 160 
1
1
locus 161 
2
0
locus 162 
1
1
locus 163 
0
2
locus 164 
0
2
locus 165 
1
1
locus 166 
0
2
locus 167 
1
1
locus 168 
2
0
locus 169 
0
2
locus 170 
2
0
locus 171 
2
0
locus 172 
0
2
locus 173 
0
2
locus 174 
2
0
locus 175 
2
0
locus 176 
1
1
locus 177 
0
2
locus 178 
0
2
locus 179 
2
0
locus 180 
0
2
locus 181 
1
1
locus 182 
1
1
locus 183 
2
0
locus 184 
2
0
locus 185 
2
0
locus 186 
2
0
locus 187 
2
0
locus 188 
0
2
locus 189 
2
0
locus 190 
0
2
locus 191 
2
0
locus 192 
0
2
locus 193 
2
0
locus 194 
1
1
locus 195 
0
2
locus 196 
2
0
locus 197 
2
0
locus 198 
2
0
locus 199 
2
0
locus 200 
1
1
locus 201 
0
2
locus 202 
1
1
locus 203 
0
2
locus 204 
2
0
locus 205 
0
2
locus 206 
2
0
locus 207 
1
1
locus 208 
1
1
locus 209 
1
1
locus 210 
0
2
locus 211 
2
0
locus 212 
0
2
locus 213 
0
2
locus 214 
1
1
locus 215 
0
2
locus 216 
1
1
locus 217 
0
2
locus 218 
0
2
locus 219 
2
0
locus 220 
1
1
locus 221 
0
2
locus 222 
2
0
locus 223 
0
2
locus 224 
1
1
locus 225 
1
1
locus 226 
0
2
locus 227 
2
0
locus 228 
0
2
locus 229 
2
0
locus 230 
2
0
locus 231 
2
0
locus 232 
0
2
locus 233 
1
1
locus 234 
2
0
locus 235 
2
0
locus 236 
2
0
locus 237 
0
2
locus 238 
0
2
locus 239 
0
2
locus 240 
1
1
locus 241 
1
1
locus 242 
0
2
locus 243 
0
2
locus 244 
2
0
locus 245 
1
1
locus 246 
0
2
locus 247 
2
0
locus 248 
0
2
locus 249 
2
0
locus 250 
2
0
locus 251 
0
2
locus 252 
0
2
locus 253 
1
1
locus 254 
2
0
locus 255 
0
2
locus 256 
0
2
locus 257 
1
1
locus 258 
0
2
locus 259 
2
0
locus 260 
0
2
locus 261 
1
1
locus 262 
2
0
locus 263 
1
1
locus 264 
0
2
locus 265 
2
0
locus 266 
1
1
locus 267 
2
0
locus 268 
2
0
locus 269 
0
2
locus 270 
2
0
locus 271 
0
2
locus 272 
2
0
locus 273 
2
0
locus 274 
2
0
locus 275 
2
0
locus 276 
2
0
locus 277 
1
1
locus 278 
0
2
locus 279 
1
1
locus 280 
2
0
locus 281 
2
0
locus 282 
1
1
locus 283 
0
2
locus 284 
0
2
locus 285 
2
0
locus 286 
1
1
locus 287 
1
1
locus 288 
2
0
locus 289 
1
1
locus 290 
1
1
locus 291 
1
1
locus 292 
0
2
locus 293 
0
2
locus 294 
2
0
locus 295 
0
2
locus 296 
1
1
locus 297 
0
2
locus 298 
1
1
locus 299 
1
1
locus 300 
1
1
locus 301 
2
0
locus 302 
0
2
locus 303 
2
0
locus 304 
2
0
locus 305 
2
0
locus 306 
0
2
locus 307 
0
2
locus 308 
1
1
locus 309 
0
2
locus 310 
0
2
locus 311 
0
2
locus 312 
1
1
locus 313 
1
1
locus 314 
2
0
locus 315 
1
1
locus 316 
0
2
locus 317 
1
1
locus 318 
0
2
locus 319 
2
0
locus 320 
0
2
locus 321 
1
1
locus 322 
2
0
locus 323 
2
0
locus 324 
2
0
locus 325 
0
2
locus 326 
0
2
locus 327 
1
1
locus 328 
2
0
locus 329 
0
2
locus 330 
1
1
locus 331 
0
2
locus 332 
2
0
locus 333 
2
0
locus 334 
2
0
locus 335 
2
0
locus 336 
1
1
locus 337 
2
0
locus 338 
2
0
locus 339 
1
1
locus 340 
2
0
locus 341 
0
2
locus 342 
0
2
locus 343 
1
1
locus 344 
2
0
locus 345 
0
2
locus 346 
1
1
locus 347 
0
2
locus 348 
2
0
locus 349 
2
0
locus 350 
1
1
locus 351 
0
2
locus 352 
2
0
locus 353 
1
1
locus 354 
2
0
locus 355 
0
2
locus 356 
2
0
locus 357 
1
1
locus 358 
0
2
locus 359 
2
0
locus 360 
1
1
locus 361 
0
2
locus 362 
0
2
locus 363 
2
0
locus 364 
1
1
locus 365 
0
2
locus 366 
0
2
locus 367 
1
1
locus 368 
2
0
locus 369 
1
1
locus 370 
2
0
locus 371 
0
2
locus 372 
2
0
locus 373 
1
1
locus 374 
0
2
locus 375 
0
2
locus 376 
0
2
locus 377 
0
2
locus 378 
0
2
locus 379 
1
1
locus 380 
2
0
locus 381 
0
2
locus 382 
2
0
locus 383 
0
2
locus 384 
0
2
locus 385 
0
2
locus 386 
0
2
locus 387 
0
2
locus 388 
1
1
locus 389 
0
2
locus 390 
2
0
locus 391 
2
0
locus 392 
2
0
locus 393 
1
1
locus 394 
2
0
locus 395 
0
2
locus 396 
0
2
locus 397 
1
1
locus 398 
1
1
locus 399 
0
2
locus 400 
0
2
locus 401 
2
0
locus 402 
0
2
locus 403 
0
2
locus 404 
0
2
locus 405 
0
2
locus 406 
2
0
locus 407 
0
2
locus 408 
2
0
locus 409 
1
1
locus 410 
1
1
locus 411 
0
2
locus 412 
1
1
locus 413 
0
2
locus 414 
2
0
locus 415 
2
0
locus 416 
0
2
locus 417 
0
2
locus 418 
1
1
locus 419 
2
0
locus 420 
1
1
locus 421 
2
0
locus 422 
1
1
locus 423 
0
2
locus 424 
0
2
locus 425 
0
2
locus 426 
0
2
locus 427 
2
0
locus 428 
1
1
locus 429 
2
0
locus 430 
0
2
locus 431 
0
2
locus 432 
2
0
locus 433 
2
0
locus 434 
0
2
locus 435 
1
1
locus 436 
2
0
locus 437 
0
2
locus 438 
1
1
locus 439 
2
0
locus 440 
2
0
locus 441 
0
2
locus 442 
1
1
locus 443 
0
2
locus 444 
0
2
locus 445 
2
0
locus 446 
0
2
locus 447 
1
1
locus 448 
1
1
locus 449 
0
2
locus 450 
0
2
locus 451 
1
1
locus 452 
1
1
locus 453 
1
1
locus 454 
0
2
locus 455 
1
1
locus 456 
1
1
locus 457 
0
2
locus 458 
1
1
locus 459 
0
2
locus 460 
0
2
locus 461 
1
1
locus 462 
2
0
locus 463 
0
2
locus 464 
1
1
locus 465 
0
2
locus 466 
1
1
locus 467 
1
1
locus 468 
0
2
locus 469 
0
2
locus 470 
1
1
locus 471 
0
2
locus 472 
1
1
locus 473 
0
2
locus 474 
0
2
locus 475 
0
2
locus 476 
2
0
locus 477 
0
2
locus 478 
0
2
locus 479 
0
2
locus 480 
1
1
locus 481 
2
0
locus 482 
1
1
locus 483 
2
0
locus 484 
0
2
locus 485 
1
1
locus 486 
0
2
locus 487 
2
0
locus 488 
1
1
locus 489 
1
1
locus 490 
1
1
locus 491 
2
0
locus 492 
2
0
locus 493 
1
1
locus 494 
1
1
locus 495 
0
2
locus 496 
0
2
locus 497 
1
1
locus 498 
2
0
locus 499 
0
2
locus 500 
1
1
locus 501 
2
0
locus 502 
1
1
locus 503 
1
1
locus 504 
2
0
locus 505 
0
2
locus 506 
0
2
locus 507 
2
0
locus 508 
0
2
locus 509 
2
0
locus 510 
0
2
locus 511 
0
2
locus 512 
1
1
locus 513 
1
1
locus 514 
2
0
locus 515 
1
1
locus 516 
2
0
locus 517 
2
0
locus 518 
0
2
locus 519 
0
2
locus 520 
0
2
locus 521 
0
2
locus 522 
0
2
locus 523 
1
1
locus 524 
0
2
locus 525 
1
1
locus 526 
2
0
locus 527 
0
2
locus 528 
0
2
locus 529 
1
1
locus 530 
0
2
locus 531 
0
2
locus 532 
2
0
locus 533 
1
1
locus 534 
2
0
locus 535 
2
0
locus 536 
0
2
locus 537 
2
0
locus 538 
0
2
locus 539 
0
2
locus 540 
1
1
locus 541 
1
1
locus 542 
1
1
locus 543 
0
2
locus 544 
1
1
locus 545 
1
1
locus 546 
1
1
locus 547 
0
2
locus 548 
1
1
locus 549 
2
0
locus 550 
0
2
locus 551 
0
2
locus 552 
0
2
locus 553 
0
2
locus 554 
1
1
locus 555 
0
2
locus 556 
0
2
locus 557 
2
0
locus 558 
1
1
locus 559 
1
1
locus 560 
2
0
locus 561 
0
2
locus 562 
2
0
locus 563 
1
1
locus 564 
2
0
locus 565 
0
2
locus 566 
0
2
locus 567 
2
0
locus 568 
0
2
locus 569 
1
1
locus 570 
1
1
locus 571 
1
1
locus 572 
0
2
locus 573 
0
2
locus 574 
2
0
locus 575 
2
0
locus 576 
2
0
locus 577 
0
2
locus 578 
2
0
locus 579 
2
0
locus 580 
0
2
locus 581 
1
1
locus 582 
1
1
locus 583 
2
0
locus 584 
0
2
locus 585 
1
1
locus 586 
1
1
locus 587 
0
2
locus 588 
2
0
locus 589 
0
2
locus 590 
2
0
locus 591 
2
0
locus 592 
2
0
locus 593 
2
0
locus 594 
0
2
locus 595 
0
2
locus 596 
0
2
locus 597 
0
2
locus 598 
2
0
locus 599 
1
1
locus 600 
2
0
locus 601 
2
0
locus 602 
0
2
locus 603 
2
0
locus 604 
0
2
locus 605 
1
1
locus 606 
1
1
locus 607 
0
2
locus 608 
1
1
locus 609 
1
1
locus 610 
0
2
locus 611 
0
2
locus 612 
0
2
locus 613 
2
0
locus 614 
1
1
locus 615 
0
2
locus 616 
0
2
locus 617 
0
2
locus 618 
1
1
locus 619 
2
0
locus 620 
2
0
locus 621 
0
2
locus 622 
2
0
locus 623 
2
0
locus 624 
1
1
locus 625 
2
0
locus 626 
2
0
locus 627 
0
2
locus 628 
0
2
locus 629 
0
2
locus 630 
0
2
locus 631 
0
2
locus 632 
2
0
locus 633 
1
1
locus 634 
2
0
locus 635 
2
0
locus 636 
0
2
locus 637 
2
0
locus 638 
2
0
locus 639 
1
1
locus 640 
1
1
locus 641 
0
2
locus 642 
2
0
locus 643 
1
1
locus 644 
1
1
locus 645 
2
0
locus 646 
0
2
locus 647 
0
2
locus 648 
1
1
locus 649 
0
2
locus 650 
2
0
locus 651 
1
1
locus 652 
2
0
locus 653 
2
0
locus 654 
0
2
locus 655 
0
2
locus 656 
2
0
locus 657 
0
2
locus 658 
0
2
locus 659 
1
1
locus 660 
2
0
locus 661 
0
2
locus 662 
0
2
locus 663 
2
0
locus 664 
2
0
locus 665 
1
1
locus 666 
1
1
locus 667 
0
2
locus 668 
2
0
locus 669 
2
0
locus 670 
1
1
locus 671 
2
0
locus 672 
1
1
locus 673 
0
2
locus 674 
2
0
locus 675 
1
1
locus 676 
1
1
locus 677 
0
2
locus 678 
2
0
locus 679 
0
2
locus 680 
2
0
locus 681 
1
1
locus 682 
0
2
locus 683 
2
0
locus 684 
0
2
locus 685 
2
0
locus 686 
2
0
locus 687 
2
0
locus 688 
1
1
locus 689 
1
1
locus 690 
2
0
locus 691 
2
0
locus 692 
0
2
locus 693 
1
1
locus 694 
2
0
locus 695 
2
0
locus 696 
1
1
locus 697 
1
1
locus 698 
0
2
locus 699 
2
0
locus 700 
2
0
locus 701 
2
0
locus 702 
2
0
locus 703 
1
1
locus 704 
2
0
locus 705 
0
2
locus 706 
1
1
locus 707 
2
0
locus 708 
0
2
locus 709 
2
0
locus 710 
0
2
locus 711 
2
0
locus 712 
0
2
locus 713 
0
2
locus 714 
2
0
locus 715 
1
1
locus 716 
1
1
locus 717 
2
0
locus 718 
0
2
locus 719 
1
1
locus 720 
1
1
locus 721 
0
2
locus 722 
1
1
locus 723 
0
2
locus 724 
0
2
locus 725 
0
2
locus 726 
0
2
locus 727 
0
2
locus 728 
0
2
locus 729 
2
0
locus 730 
2
0
locus 731 
2
0
locus 732 
0
2
locus 733 
0
2
locus 734 
1
1
locus 735 
0
2
locus 736 
2
0
locus 737 
2
0
locus 738 
2
0
locus 739 
1
1
locus 740 
2
0
locus 741 
1
1
locus 742 
0
2
locus 743 
2
0
locus 744 
2
0
locus 745 
0
2
locus 746 
2
0
locus 747 
1
1
locus 748 
0
2
locus 749 
0
2
locus 750 
1
1
locus 751 
0
2
locus 752 
1
1
locus 753 
1
1
locus 754 
1
1
locus 755 
1
1
locus 756 
0
2
locus 757 
0
2
locus 758 
2
0
locus 759 
0
2
locus 760 
1
1
locus 761 
1
1
locus 762 
0
2
locus 763 
0
2
locus 764 
1
1
locus 765 
1
1
locus 766 
0
2
locus 767 
1
1
locus 768 
0
2
locus 769 
0
2
locus 770 
0
2
locus 771 
0
2
locus 772 
0
2
locus 773 
1
1
locus 774 
0
2
locus 775 
2
0
locus 776 
1
1
locus 777 
0
2
locus 778 
0
2
locus 779 
0
2
locus 780 
2
0
locus 781 
0
2
locus 782 
1
1
locus 783 
2
0
locus 784 
2
0
locus 785 
1
1
locus 786 
1
1
locus 787 
0
2
locus 788 
2
0
locus 789 
2
0
locus 790 
2
0
locus 791 
0
2
locus 792 
1
1
locus 793 
0
2
locus 794 
0
2
locus 795 
0
2
locus 796 
0
2
locus 797 
0
2
locus 798 
1
1
locus 799 
1
1
locus 800 
2
0
locus 801 
0
2
locus 802 
0
2
locus 803 
0
2
locus 804 
2
0
locus 805 
1
1
locus 806 
0
2
locus 807 
1
1
locus 808 
0
2
locus 809 
2
0
locus 810 
2
0
locus 811 
0
2
locus 812 
0
2
locus 813 
0
2
locus 814 
1
1
locus 815 
2
0
locus 816 
1
1
locus 817 
2
0
locus 818 
2
0
locus 819 
0
2
locus 820 
2
0
locus 821 
0
2
locus 822 
0
2
locus 823 
1
1
locus 824 
0
2
locus 825 
2
0
locus 826 
0
2
locus 827 
1
1
locus 828 
1
1
locus 829 
0
2
locus 830 
1
1
locus 831 
2
0
locus 832 
0
2
locus 833 
2
0
locus 834 
1
1
locus 835 
1
1
locus 836 
2
0
locus 837 
0
2
locus 838 
0
2
locus 839 
2
0
locus 840 
1
1
locus 841 
1
1
locus 842 
0
2
locus 843 
1
1
locus 844 
2
0
locus 845 
0
2
locus 846 
2
0
locus 847 
1
1
locus 848 
1
1
locus 849 
2
0
locus 850 
1
1
locus 851 
2
0
locus 852 
1
1
locus 853 
1
1
locus 854 
2
0
locus 855 
0
2
locus 856 
2
0
locus 857 
1
1
locus 858 
2
0
locus 859 
1
1
locus 860 
2
0
locus 861 
0
2
locus 862 
0
2
locus 863 
1
1
locus 864 
0
2
locus 865 
1
1
locus 866 
2
0
locus 867 
1
1
locus 868 
0
2
locus 869 
0
2
locus 870 
2
0
locus 871 
0
2
locus 872 
0
2
locus 873 
1
1
locus 874 
1
1
locus 875 
1
1
locus 876 
1
1
locus 877 
2
0
locus 878 
0
2
locus 879 
2
0
locus 880 
0
2
locus 881 
2
0
locus 882 
0
2
locus 883 
1
1
locus 884 
1
1
locus 885 
0
2
locus 886 
2
0
locus 887 
1
1
locus 888 
2
0
locus 889 
2
0
locus 890 
1
1
locus 891 
0
2
locus 892 
2
0
locus 893 
2
0
locus 894 
2
0
locus 895 
1
1
locus 896 
2
0
locus 897 
0
2
locus 898 
2
0
locus 899 
2
0
locus 900 
2
0
locus 901 
0
2
locus 902 
0
2
locus 903 
0
2
locus 904 
2
0
locus 905 
0
2
locus 906 
0
2
locus 907 
2
0
locus 908 
1
1
locus 909 
2
0
locus 910 
0
2
locus 911 
0
2
locus 912 
1
1
locus 913 
2
0
locus 914 
1
1
locus 915 
2
0
locus 916 
1
1
locus 917 
0
2
locus 918 
2
0
locus 919 
0
2
locus 920 
1
1
locus 921 
0
2
locus 922 
1
1
locus 923 
1
1
locus 924 
2
0
locus 925 
1
1
locus 926 
2
0
locus 927 
0
2
locus 928 
1
1
locus 929 
0
2
locus 930 
1
1
locus 931 
0
2
locus 932 
2
0
locus 933 
0
2
locus 934 
1
1
locus 935 
0
2
locus 936 
0
2
locus 937 
1
1
locus 938 
1
1
locus 939 
0
2
locus 940 
0
2
locus 941 
0
2
locus 942 
0
2
locus 943 
1
1
locus 944 
0
2
locus 945 
1
1
locus 946 
1
1
locus 947 
0
2
locus 948 
1
1
locus 949 
1
1
locus 950 
0
2
locus 951 
0
2
locus 952 
1
1
locus 953 
1
1
locus 954 
1
1
locus 955 
1
1
locus 956 
0
2
locus 957 
1
1
locus 958 
0
2
locus 959 
1
1
locus 960 
0
2
locus 961 
1
1
locus 962 
0
2
locus 963 
0
2
locus 964 
0
2
locus 965 
0
2
locus 966 
1
1
locus 967 
1
1
locus 968 
1
1
locus 969 
0
2
locus 970 
0
2
locus 971 
0
2
locus 972 
1
1
locus 973 
1
1
locus 974 
0
2
locus 975 
1
1
locus 976 
1
1
locus 977 
0
2
locus 978 
1
1
locus 979 
0
2
locus 980 
0
2
locus 981 
0
2
locus 982 
0
2
locus 983 
0
2
locus 984 
0
2
locus 985 
1
1
locus 986 
1
1
locus 987 
0
2
locus 988 
1
1
locus 989 
0
2
locus 990 
0
2
locus 991 
1
1
locus 992 
0
2
locus 993 
0
2
locus 994 
1
1
locus 995 
1
1
locus 996 
0
2
locus 997 
1
1
locus 998 
1
1
locus 999 
0
2
locus 1000 
0
2
locus 1001 
0
2
locus 1002 
1
1
locus 1003 
1
1
locus 1004 
0
2
locus 1005 
0
2
locus 1006 
1
1
locus 1007 
0
2
locus 1008 
0
2
locus 1009 
1
1
locus 1010 
1
1
locus 1011 
0
2
locus 1012 
1
1
locus 1013 
0
2
locus 1014 
1
1
locus 1015 
0
2
locus 1016 
1
1
locus 1017 
1
1
locus 1018 
1
1
locus 1019 
1
1
locus 1020 
0
2
locus 1021 
1
1
locus 1022 
0
2
locus 1023 
1
1
locus 1024 
1
1
locus 1025 
0
2
locus 1026 
1
1
locus 1027 
0
2
locus 1028 
1
1
locus 1029 
1
1
locus 1030 
1
1
locus 1031 
1
1
locus 1032 
0
2
locus 1033 
0
2
locus 1034 
0
2
locus 1035 
0
2
locus 1036 
1
1
locus 1037 
1
1
locus 1038 
0
2
locus 1039 
0
2
locus 1040 
0
2
locus 1041 
0
2
locus 1042 
0
2
locus 1043 
0
2
locus 1044 
0
2
locus 1045 
1
1
locus 1046 
1
1
locus 1047 
0
2
locus 1048 
1
1
locus 1049 
1
1
locus 1050 
1
1
locus 1051 
1
1
locus 1052 
0
2
locus 1053 
1
1
locus 1054 
0
2
locus 1055 
1
1
locus 1056 
1
1
locus 1057 
1
1
locus 1058 
0
2
locus 1059 
1
1
locus 1060 
1
1
locus 1061 
1
1
locus 1062 
1
1
locus 1063 
1
1
locus 1064 
1
1
locus 1065 
0
2
locus 1066 
0
2
locus 1067 
0
2
locus 1068 
1
1
locus 1069 
1
1
locus 1070 
0
2
locus 1071 
0
2
locus 1072 
1
1
locus 1073 
0
2
locus 1074 
0
2
locus 1075 
1
1
locus 1076 
1
1
locus 1077 
1
1
locus 1078 
1
1
locus 1079 
1
1
locus 1080 
1
1
locus 1081 
0
2
locus 1082 
1
1
locus 1083 
0
2
locus 1084 
1
1
locus 1085 
0
2
locus 1086 
0
2
locus 1087 
1
1
locus 1088 
1
1
locus 1089 
0
2
locus 1090 
1
1
locus 1091 
1
1
locus 1092 
0
2
locus 1093 
1
1
locus 1094 
0
2
locus 1095 
1
1
locus 1096 
1
1
locus 1097 
1
1
locus 1098 
0
2
locus 1099 
1
1
locus 1100 
1
1
locus 1101 
0
2
locus 1102 
1
1
locus 1103 
1
1
locus 1104 
1
1
locus 1105 
1
1
locus 1106 
1
1
locus 1107 
1
1
locus 1108 
0
2
locus 1109 
1
1
locus 1110 
0
2
locus 1111 
0
2
locus 1112 
1
1
locus 1113 
0
2
locus 1114 
1
1
locus 1115 
1
1
locus 1116 
0
2
locus 1117 
0
2
locus 1118 
0
2
locus 1119 
0
2
locus 1120 
1
1
locus 1121 
1
1
locus 1122 
0
2
locus 1123 
1
1
locus 1124 
1
1
locus 1125 
1
1
locus 1126 
0
2
locus 1127 
1
1
locus 1128 
1
1
locus 1129 
1
1
locus 1130 
1
1
locus 1131 
1
1
locus 1132 
1
1
locus 1133 
1
1
locus 1134 
0
2
locus 1135 
0
2
locus 1136 
0
2
locus 1137 
0
2
locus 1138 
0
2
locus 1139 
0
2
locus 1140 
1
1
locus 1141 
1
1
locus 1142 
1
1
locus 1143 
0
2
locus 1144 
0
2
locus 1145 
1
1
locus 1146 
0
2
locus 1147 
1
1
locus 1148 
0
2
locus 1149 
0
2
locus 1150 
0
2
locus 1151 
1
1
locus 1152 
1
1
locus 1153 
1
1
locus 1154 
0
2
locus 1155 
0
2
locus 1156 
1
1
locus 1157 
0
2
locus 1158 
1
1
locus 1159 
0
2
locus 1160 
0
2
locus 1161 
1
1
locus 1162 
0
2
locus 1163 
0
2
locus 1164 
0
2
locus 1165 
1
1
locus 1166 
1
1
locus 1167 
1
1
locus 1168 
0
2
locus 1169 
1
1
locus 1170 
0
2
locus 1171 
1
1
locus 1172 
1
1
locus 1173 
0
2
locus 1174 
0
2
locus 1175 
1
1
locus 1176 
1
1
locus 1177 
0
2
locus 1178 
1
1
locus 1179 
1
1
locus 1180 
1
1
locus 1181 
0
2
locus 1182 
0
2
locus 1183 
0
2
locus 1184 
0
2
locus 1185 
1
1
locus 1186 
1
1
locus 1187 
1
1
locus 1188 
0
2
locus 1189 
1
1
locus 1190 
0
2
locus 1191 
1
1
locus 1192 
1
1
locus 1193 
0
2
locus 1194 
1
1
locus 1195 
1
1
locus 1196 
0
2
locus 1197 
0
2
locus 1198 
0
2
locus 1199 
1
1
locus 1200 
0
2
locus 1201 
0
2
locus 1202 
1
1
locus 1203 
0
2
locus 1204 
1
1
locus 1205 
0
2
locus 1206 
0
2
locus 1207 
1
1
locus 1208 
0
2
locus 1209 
0
2
locus 1210 
0
2
locus 1211 
1
1
locus 1212 
0
2
locus 1213 
0
2
locus 1214 
1
1
locus 1215 
1
1
locus 1216 
0
2
locus 1217 
1
1
locus 1218 
0
2
locus 1219 
1
1
locus 1220 
0
2
locus 1221 
1
1
locus 1222 
1
1
locus 1223 
0
2
locus 1224 
0
2
locus 1225 
1
1
locus 1226 
0
2
locus 1227 
0
2
locus 1228 
1
1
locus 1229 
1
1
locus 1230 
0
2
locus 1231 
0
2
locus 1232 
0
2
locus 1233 
1
1
locus 1234 
1
1
locus 1235 
0
2
locus 1236 
0
2
locus 1237 
0
2
locus 1238 
0
2
locus 1239 
0
2
locus 1240 
1
1
locus 1241 
0
2
locus 1242 
1
1
locus 1243 
0
2
locus 1244 
0
2
locus 1245 
1
1
locus 1246 
1
1
locus 1247 
1
1
locus 1248 
0
2
locus 1249 
0
2
locus 1250 
0
2
locus 1251 
0
2
locus 1252 
0
2
locus 1253 
1
1
locus 1254 
0
2
locus 1255 
1
1
locus 1256 
0
2
locus 1257 
0
2
locus 1258 
0
2
locus 1259 
0
2
locus 1260 
1
1
locus 1261 
0
2
locus 1262 
1
1
locus 1263 
1
1
locus 1264 
1
1
locus 1265 
0
2
locus 1266 
0
2
locus 1267 
0
2
locus 1268 
1
1
locus 1269 
1
1
locus 1270 
1
1
locus 1271 
1
1
locus 1272 
0
2
locus 1273 
0
2
locus 1274 
1
1
locus 1275 
0
2
locus 1276 
1
1
locus 1277 
0
2
locus 1278 
1
1
locus 1279 
0
2
locus 1280 
1
1
locus 1281 
0
2
locus 1282 
1
1
locus 1283 
1
1
locus 1284 
0
2
locus 1285 
0
2
locus 1286 
1
1
locus 1287 
0
2
locus 1288 
0
2
locus 1289 
0
2
locus 1290 
0
2
locus 1291 
0
2
locus 1292 
1
1
locus 1293 
0
2
locus 1294 
1
1
locus 1295 
1
1
locus 1296 
1
1
locus 1297 
0
2
locus 1298 
1
1
locus 1299 
0
2
locus 1300 
1
1
locus 1301 
0
2
locus 1302 
1
1
locus 1303 
1
1
locus 1304 
1
1
locus 1305 
1
1
locus 1306 
0
2
locus 1307 
1
1
locus 1308 
0
2
locus 1309 
0
2
locus 1310 
1
1
locus 1311 
1
1
locus 1312 
1
1
locus 1313 
0
2
locus 1314 
1
1
locus 1315 
1
1
locus 1316 
1
1
locus 1317 
0
2
locus 1318 
1
1
locus 1319 
0
2
locus 1320 
1
1
locus 1321 
0
2
locus 1322 
0
2
locus 1323 
0
2
locus 1324 
0
2
locus 1325 
1
1
locus 1326 
1
1
locus 1327 
1
1
locus 1328 
1
1
locus 1329 
1
1
locus 1330 
0
2
locus 1331 
0
2
locus 1332 
0
2
locus 1333 
1
1
locus 1334 
1
1
locus 1335 
1
1
locus 1336 
0
2
locus 1337 
0
2
locus 1338 
0
2
locus 1339 
0
2
locus 1340 
1
1
locus 1341 
1
1
locus 1342 
1
1
locus 1343 
1
1
locus 1344 
1
1
locus 1345 
0
2
locus 1346 
0
2
locus 1347 
1
1
locus 1348 
0
2
locus 1349 
0
2
locus 1350 
1
1
locus 1351 
1
1
locus 1352 
0
2
locus 1353 
0
2
locus 1354 
0
2
locus 1355 
0
2
locus 1356 
0
2
locus 1357 
0
2
locus 1358 
1
1
locus 1359 
1
1
locus 1360 
1
1
locus 1361 
1
1
locus 1362 
0
2
locus 1363 
1
1
locus 1364 
0
2
locus 1365 
0
2
locus 1366 
1
1
locus 1367 
1
1
locus 1368 
0
2
locus 1369 
0
2
locus 1370 
0
2
locus 1371 
1
1
locus 1372 
1
1
locus 1373 
1
1
locus 1374 
0
2
locus 1375 
1
1
locus 1376 
1
1
locus 1377 
1
1
locus 1378 
1
1
locus 1379 
0
2
locus 1380 
1
1
locus 1381 
0
2
locus 1382 
1
1
locus 1383 
0
2
locus 1384 
1
1
locus 1385 
1
1
locus 1386 
0
2
locus 1387 
0
2
locus 1388 
1
1
locus 1389 
1
1
locus 1390 
1
1
locus 1391 
0
2
locus 1392 
0
2
locus 1393 
0
2
locus 1394 
1
1
locus 1395 
0
2
locus 1396 
0
2
locus 1397 
0
2
locus 1398 
0
2
locus 1399 
1
1
locus 1400 
0
2
locus 1401 
0
2
locus 1402 
0
2
locus 1403 
0
2
locus 1404 
1
1
locus 1405 
1
1
locus 1406 
1
1
locus 1407 
0
2
locus 1408 
1
1
locus 1409 
1
1
locus 1410 
1
1
locus 1411 
0
2
locus 1412 
1
1
locus 1413 
0
2
locus 1414 
1
1
locus 1415 
0
2
locus 1416 
0
2
locus 1417 
1
1
locus 1418 
1
1
locus 1419 
0
2
locus 1420 
0
2
locus 1421 
1
1
locus 1422 
1
1
locus 1423 
1
1
locus 1424 
0
2
locus 1425 
1
1
locus 1426 
1
1
locus 1427 
1
1
locus 1428 
1
1
locus 1429 
1
1
locus 1430 
1
1
locus 1431 
0
2
locus 1432 
1
1
locus 1433 
1
1
locus 1434 
1
1
locus 1435 
0
2
locus 1436 
0
2
locus 1437 
0
2
locus 1438 
0
2
locus 1439 
0
2
locus 1440 
0
2
locus 1441 
0
2
locus 1442 
1
1
locus 1443 
1
1
locus 1444 
0
2
locus 1445 
1
1
locus 1446 
1
1
locus 1447 
0
2
locus 1448 
0
2
locus 1449 
0
2
locus 1450 
1
1
locus 1451 
0
2
locus 1452 
0
2
locus 1453 
1
1
locus 1454 
0
2
locus 1455 
0
2
locus 1456 
0
2
locus 1457 
1
1
locus 1458 
1
1
locus 1459 
0
2
locus 1460 
1
1
locus 1461 
0
2
locus 1462 
1
1
locus 1463 
1
1
locus 1464 
0
2
locus 1465 
0
2
locus 1466 
0
2
locus 1467 
0
2
locus 1468 
0
2
locus 1469 
1
1
locus 1470 
0
2
locus 1471 
1
1
locus 1472 
0
2
locus 1473 
0
2
locus 1474 
0
2
locus 1475 
0
2
locus 1476 
1
1
locus 1477 
1
1
locus 1478 
0
2
locus 1479 
0
2
locus 1480 
1
1
locus 1481 
0
2
locus 1482 
1
1
locus 1483 
0
2
locus 1484 
0
2
locus 1485 
1
1
locus 1486 
1
1
locus 1487 
1
1
locus 1488 
0
2
locus 1489 
0
2
locus 1490 
1
1
locus 1491 
1
1
locus 1492 
1
1
locus 1493 
0
2
locus 1494 
1
1
locus 1495 
0
2
locus 1496 
0
2
locus 1497 
0
2
locus 1498 
0
2
locus 1499 
1
1
locus 1500 
0
2
locus 1501 
1
1
locus 1502 
0
2
locus 1503 
0
2
locus 1504 
0
2
locus 1505 
1
1
locus 1506 
1
1
locus 1507 
0
2
locus 1508 
1
1
locus 1509 
0
2
locus 1510 
1
1
locus 1511 
1
1
locus 1512 
1
1
locus 1513 
0
2
locus 1514 
1
1
locus 1515 
1
1
locus 1516 
0
2
locus 1517 
1
1
locus 1518 
1
1
locus 1519 
1
1
locus 1520 
1
1
locus 1521 
1
1
locus 1522 
1
1
locus 1523 
0
2
locus 1524 
1
1
locus 1525 
1
1
locus 1526 
0
2
locus 1527 
1
1
locus 1528 
0
2
locus 1529 
1
1
locus 1530 
1
1
locus 1531 
0
2
locus 1532 
1
1
locus 1533 
1
1
locus 1534 
0
2
locus 1535 
1
1
locus 1536 
0
2
locus 1537 
1
1
locus 1538 
1
1
locus 1539 
0
2
locus 1540 
0
2
locus 1541 
0
2
locus 1542 
1
1
locus 1543 
0
2
locus 1544 
1
1
locus 1545 
1
1
locus 1546 
1
1
locus 1547 
0
2
locus 1548 
0
2
locus 1549 
1
1
locus 1550 
1
1
locus 1551 
0
2
locus 1552 
0
2
locus 1553 
0
2
locus 1554 
1
1
locus 1555 
1
1
locus 1556 
0
2
locus 1557 
0
2
locus 1558 
1
1
locus 1559 
1
1
locus 1560 
1
1
locus 1561 
1
1
locus 1562 
0
2
locus 1563 
0
2
locus 1564 
0
2
locus 1565 
0
2
locus 1566 
1
1
locus 1567 
0
2
locus 1568 
0
2
locus 1569 
1
1
locus 1570 
1
1
locus 1571 
0
2
locus 1572 
0
2
locus 1573 
0
2
locus 1574 
1
1
locus 1575 
1
1
locus 1576 
1
1
locus 1577 
0
2
locus 1578 
0
2
locus 1579 
1
1
locus 1580 
1
1
locus 1581 
1
1
locus 1582 
0
2
locus 1583 
1
1
locus 1584 
1
1
locus 1585 
1
1
locus 1586 
0
2
locus 1587 
0
2
locus 1588 
1
1
locus 1589 
0
2
locus 1590 
1
1
locus 1591 
0
2
locus 1592 
1
1
locus 1593 
1
1
locus 1594 
1
1
locus 1595 
1
1
locus 1596 
1
1
locus 1597 
1
1
locus 1598 
0
2
locus 1599 
0
2
locus 1600 
0
2
locus 1601 
0
2
locus 1602 
1
1
locus 1603 
0
2
locus 1604 
1
1
locus 1605 
1
1
locus 1606 
0
2
locus 1607 
1
1
locus 1608 
0
2
locus 1609 
1
1
locus 1610 
1
1
locus 1611 
0
2
locus 1612 
1
1
locus 1613 
1
1
locus 1614 
1
1
locus 1615 
0
2
locus 1616 
0
2
locus 1617 
1
1
locus 1618 
1
1
locus 1619 
1
1
locus 1620 
0
2
locus 1621 
1
1
locus 1622 
0
2
locus 1623 
0
2
locus 1624 
0
2
locus 1625 
0
2
locus 1626 
0
2
locus 1627 
0
2
locus 1628 
1
1
locus 1629 
0
2
locus 1630 
1
1
locus 1631 
0
2
locus 1632 
0
2
locus 1633 
0
2
locus 1634 
0
2
locus 1635 
0
2
locus 1636 
0
2
locus 1637 
1
1
locus 1638 
0
2
locus 1639 
0
2
locus 1640 
1
1
locus 1641 
0
2
locus 1642 
0
2
locus 1643 
0
2
locus 1644 
1
1
locus 1645 
1
1
locus 1646 
0
2
locus 1647 
1
1
locus 1648 
0
2
locus 1649 
0
2
locus 1650 
0
2
locus 1651 
1
1
locus 1652 
1
1
locus 1653 
0
2
locus 1654 
0
2
locus 1655 
1
1
locus 1656 
1
1
locus 1657 
1
1
locus 1658 
0
2
locus 1659 
0
2
locus 1660 
1
1
locus 1661 
0
2
locus 1662 
1
1
locus 1663 
0
2
locus 1664 
1
1
locus 1665 
1
1
locus 1666 
1
1
locus 1667 
1
1
locus 1668 
1
1
locus 1669 
0
2
locus 1670 
0
2
locus 1671 
0
2
locus 1672 
0
2
locus 1673 
0
2
locus 1674 
0
2
locus 1675 
0
2
locus 1676 
0
2
locus 1677 
1
1
locus 1678 
1
1
locus 1679 
1
1
locus 1680 
1
1
locus 1681 
1
1
locus 1682 
1
1
locus 1683 
1
1
locus 1684 
1
1
locus 1685 
1
1
locus 1686 
1
1
locus 1687 
0
2
locus 1688 
0
2
locus 1689 
1
1
locus 1690 
1
1
locus 1691 
1
1
locus 1692 
1
1
locus 1693 
0
2
locus 1694 
1
1
locus 1695 
0
2
locus 1696 
1
1
locus 1697 
1
1
locus 1698 
0
2
locus 1699 
1
1
locus 1700 
0
2
locus 1701 
0
2
locus 1702 
1
1
locus 1703 
0
2
locus 1704 
0
2
locus 1705 
1
1
locus 1706 
0
2
locus 1707 
0
2
locus 1708 
1
1
locus 1709 
0
2
locus 1710 
1
1
locus 1711 
0
2
locus 1712 
1
1
locus 1713 
0
2
locus 1714 
0
2
locus 1715 
1
1
locus 1716 
1
1
locus 1717 
0
2
locus 1718 
0
2
locus 1719 
1
1
locus 1720 
0
2
locus 1721 
0
2
locus 1722 
1
1
locus 1723 
1
1
locus 1724 
1
1
locus 1725 
1
1
locus 1726 
0
2
locus 1727 
1
1
locus 1728 
1
1
locus 1729 
0
2
locus 1730 
1
1
locus 1731 
1
1
locus 1732 
0
2
locus 1733 
1
1
locus 1734 
0
2
locus 1735 
1
1
locus 1736 
1
1
locus 1737 
1
1
locus 1738 
1
1
locus 1739 
0
2
locus 1740 
0
2
locus 1741 
1
1
locus 1742 
1
1
locus 1743 
0
2
locus 1744 
0
2
locus 1745 
1
1
locus 1746 
0
2
locus 1747 
0
2
locus 1748 
1
1
locus 1749 
1
1
locus 1750 
0
2
locus 1751 
0
2
locus 1752 
1
1
locus 1753 
1
1
locus 1754 
1
1
locus 1755 
0
2
locus 1756 
1
1
locus 1757 
1
1
locus 1758 
0
2
locus 1759 
0
2
locus 1760 
1
1
locus 1761 
1
1
locus 1762 
1
1
locus 1763 
1
1
locus 1764 
1
1
locus 1765 
0
2
locus 1766 
0
2
locus 1767 
0
2
locus 1768 
0
2
locus 1769 
0
2
locus 1770 
0
2
locus 1771 
1
1
locus 1772 
1
1
locus 1773 
0
2
locus 1774 
0
2
locus 1775 
0
2
locus 1776 
0
2
locus 1777 
1
1
locus 1778 
1
1
locus 1779 
1
1
locus 1780 
0
2
locus 1781 
1
1
locus 1782 
1
1
locus 1783 
1
1
locus 1784 
0
2
locus 1785 
0
2
locus 1786 
1
1
locus 1787 
1
1
locus 1788 
0
2
locus 1789 
0
2
locus 1790 
1
1
locus 1791 
0
2
locus 1792 
1
1
locus 1793 
0
2
locus 1794 
1
1
locus 1795 
0
2
locus 1796 
1
1
locus 1797 
1
1
locus 1798 
1
1
locus 1799 
0
2
locus 1800 
0
2
locus 1801 
1
1
locus 1802 
0
2
locus 1803 
0
2
locus 1804 
1
1
locus 1805 
0
2
locus 1806 
0
2
locus 1807 
1
1
locus 1808 
1
1
locus 1809 
1
1
locus 1810 
1
1
locus 1811 
1
1
locus 1812 
1
1
locus 1813 
1
1
locus 1814 
1
1
locus 1815 
1
1
locus 1816 
1
1
locus 1817 
0
2
locus 1818 
0
2
locus 1819 
1
1
locus 1820 
1
1
locus 1821 
1
1
locus 1822 
0
2
locus 1823 
0
2
locus 1824 
0
2
locus 1825 
1
1
locus 1826 
1
1
locus 1827 
1
1
locus 1828 
1
1
locus 1829 
0
2
locus 1830 
0
2
locus 1831 
1
1
locus 1832 
1
1
locus 1833 
1
1
locus 1834 
1
1
locus 1835 
1
1
locus 1836 
0
2
locus 1837 
0
2
locus 1838 
0
2
locus 1839 
1
1
locus 1840 
1
1
locus 1841 
1
1
locus 1842 
0
2
locus 1843 
0
2
locus 1844 
1
1
locus 1845 
1
1
locus 1846 
0
2
locus 1847 
0
2
locus 1848 
1
1
locus 1849 
0
2
locus 1850 
0
2
locus 1851 
1
1
locus 1852 
1
1
locus 1853 
0
2
locus 1854 
0
2
locus 1855 
1
1
locus 1856 
0
2
locus 1857 
0
2
locus 1858 
0
2
locus 1859 
0
2
locus 1860 
1
1
locus 1861 
1
1
locus 1862 
1
1
locus 1863 
1
1
locus 1864 
1
1
locus 1865 
1
1
locus 1866 
0
2
locus 1867 
1
1
locus 1868 
1
1
locus 1869 
0
2
locus 1870 
0
2
locus 1871 
0
2
locus 1872 
1
1
locus 1873 
0
2
locus 1874 
0
2
locus 1875 
1
1
locus 1876 
1
1
locus 1877 
1
1
locus 1878 
1
1
locus 1879 
0
2
locus 1880 
0
2
locus 1881 
0
2
locus 1882 
1
1
locus 1883 
0
2
locus 1884 
1
1
locus 1885 
0
2
locus 1886 
0
2
locus 1887 
0
2
locus 1888 
1
1
locus 1889 
0
2
locus 1890 
1
1
locus 1891 
0
2
locus 1892 
1
1
locus 1893 
1
1
locus 1894 
0
2
locus 1895 
1
1
locus 1896 
1
1
locus 1897 
1
1
locus 1898 
0
2
locus 1899 
0
2
locus 1900 
0
2
locus 1901 
0
2
locus 1902 
1
1
locus 1903 
1
1
locus 1904 
1
1
locus 1905 
1
1
locus 1906 
1
1
locus 1907 
0
2
locus 1908 
1
1
locus 1909 
0
2
locus 1910 
1
1
locus 1911 
1
1
locus 1912 
0
2
locus 1913 
1
1
locus 1914 
1
1
locus 1915 
1
1
locus 1916 
1
1
locus 1917 
1
1
locus 1918 
0
2
locus 1919 
0
2
locus 1920 
1
1
locus 1921 
1
1
locus 1922 
1
1
locus 1923 
1
1
locus 1924 
1
1
locus 1925 
0
2
locus 1926 
1
1
locus 1927 
0
2
locus 1928 
0
2
locus 1929 
0
2
locus 1930 
0
2
locus 1931 
0
2
locus 1932 
1
1
locus 1933 
1
1
locus 1934 
0
2
locus 1935 
0
2
locus 1936 
1
1
locus 1937 
0
2
locus 1938 
1
1
locus 1939 
1
1
locus 1940 
1
1
locus 1941 
0
2
locus 1942 
1
1
locus 1943 
1
1
locus 1944 
0
2
locus 1945 
1
1
locus 1946 
0
2
locus 1947 
1
1
locus 1948 
1
1
locus 1949 
0
2
locus 1950 
1
1
locus 1951 
0
2
locus 1952 
1
1
locus 1953 
0
2
locus 1954 
1
1
locus 1955 
0
2
locus 1956 
1
1
locus 1957 
1
1
locus 1958 
1
1
locus 1959 
0
2
locus 1960 
0
2
locus 1961 
1
1
locus 1962 
1
1
locus 1963 
1
1
locus 1964 
0
2
locus 1965 
0
2
locus 1966 
1
1
locus 1967 
0
2
locus 1968 
1
1
locus 1969 
0
2
locus 1970 
1
1
locus 1971 
1
1
locus 1972 
1
1
locus 1973 
1
1
locus 1974 
0
2
locus 1975 
0
2
locus 1976 
1
1
locus 1977 
0
2
locus 1978 
1
1
locus 1979 
1
1
locus 1980 
0
2
locus 1981 
1
1
locus 1982 
0
2
locus 1983 
0
2
locus 1984 
1
1
locus 1985 
0
2
locus 1986 
1
1
locus 1987 
0
2
locus 1988 
0
2
locus 1989 
1
1
locus 1990 
1
1
locus 1991 
0
2
locus 1992 
1
1
locus 1993 
0
2
locus 1994 
0
2
locus 1995 
0
2
locus 1996 
0
2
locus 1997 
0
2
locus 1998 
1
1
locus 1999 
0
2
locus 2000 
1
1
